%YAML 1.1
%TAG !u! tag:unity3d.com,2011:
--- !u!1045 &1
EditorBuildSettings:
  m_ObjectHideFlags: 0
  serializedVersion: 2
  m_Scenes:
  - enabled: 1
    path: Assets/Main.unity
    guid: b15d1915c1e63584bbc67173b975b1de
  - enabled: 1
    path: Assets/SceneGamePlay.unity
    guid: 114370e1239b571468bcf9bb4fc7a7e3
  - enabled: 1
    path: Assets/GameoverScene.unity
    guid: 1796a393d3fa8b249ba0eb8549db46aa
  m_configObjects: {}
